Crse Attrib (RCI),Title,Subject,Instructor Name,201536,201603,201620,201626,201636,201703,201720,201726,201736,Total Result
GA Gen Ed Arts,,,,3,6,2,4,4,15,2,4,8,48
,Arts of Western World,,,,,,2,,1,,1,,4
,,ARTH - Art History,,,,,2,,1,,1,,4
,,,"Brown, Marlise G.",,,,1,,,,,,1
,,,"Kopta, Joseph R.",,,,1,,,,,,1
,,,"Schreiber, Lindsey L.",,,,,,1,,1,,2
,Creative Acts,,,,,,,,1,,,1,2
,,ENG - English,,,,,,,1,,,1,2
,,,"Gumery, Keith D.",,,,,,1,,,1,2
,Dramatic Imagination: The Performing Arts in Society,,,1,1,1,1,1,,1,1,1,8
,,THTR - Theater,,1,1,1,1,1,,1,1,1,8
,,,"Dalcanton, Jessica",,,,,1,,,,1,2
,,,"Miller, Matthew",,,1,1,,,1,1,,4
,,,"Reing, Thomas J.",1,1,,,,,,,,2
,Exploring Music,,,,,,,,8,,,,8
,,MUST - Music Studies,,,,,,,8,,,,8
,,,"Friedman, Eve A.",,,,,,2,,,,2
,,,"Nypaver, Alisha C.",,,,,,4,,,,4
,,,"Schafli, Ephraim",,,,,,2,,,,2
,Sacred Space,,,,1,,,,,,,1,2
,,ARTH - Art History,,,1,,,,,,,1,2
,,,"Pearce, Ariel",,1,,,,,,,,1
,,,(empty),,,,,,,,,1,1
,The Creative Spirit: A Multidisciplinary View,,,,1,,,1,1,,,1,4
,,THTR - Theater,,,1,,,1,1,,,1,4
,,,"Gabriel, Nathan",,1,,,1,1,,,1,4
,The Future of Your TV,,,,,,,,2,,1,2,5
,,MSP,,,,,,,2,,1,2,5
,,,"Selverian, Melissa E.",,,,,,2,,1,1,4
,,,"Weatherston, Kristine T.",,,,,,,,,1,1
,The Meaning of the Arts,,,2,3,1,1,2,2,1,1,2,15
,,PHIL - Philosophy,,2,3,1,1,2,2,1,1,2,15
,,,"Hwang, Moonyoung",,1,,,,,,,,1
,,,"Naqvi, Erum",1,2,,,2,,,,,5
,,,"Szekely, Michael D.",1,,1,1,,1,1,1,1,7
,,,"Wezowicz, Samantha",,,,,,1,,,,1
,,,(empty),,,,,,,,,1,1
GB Gen Ed Human Behavior,,,,2,5,5,3,4,4,5,3,3,34
,Bilingual Communities,,,,,,,1,,,,,1
,,SPAN - Spanish,,,,,,1,,,,,1
,,,"Doyle, Hope N.",,,,,1,,,,,1
,Human Ecology,,,,1,,,,,,,,1
,,ANTH - Anthropology,,,1,,,,,,,,1
,,,"Jessee, Nathan",,1,,,,,,,,1
,Human Sexuality,,,2,2,1,1,2,2,1,1,2,14
,,PSY - Psychology,,2,2,1,1,2,2,1,1,2,14
,,,"Bruett, Lindsey D.",1,1,1,,1,2,,,,6
,,,"Butler, Rachel M.",,,,,,,,1,,1
,,,"Ghuman, Ahmed Y.",1,1,,,1,,,,1,4
,,,"Hardeman, Jenika C.",,,,,,,1,,,1
,,,"Shields, Brian J.",,,,1,,,,,,1
,,,(empty),,,,,,,,,1,1
,Language in Society,,,,1,1,1,1,1,1,1,1,8
,,ANTH - Anthropology,,,1,1,1,1,1,1,1,1,8
,,,"Garrett, Paul B.",,,,,1,,,,1,2
,,,"Hesson, Michael",,1,1,,,1,,1,,4
,,,"Wiel, Keisha I.",,,,1,,,1,,,2
,The Meaning of Madness,,,,,1,,,,1,,,2
,,SPSY - School Psychology,,,,1,,,,1,,,2
,,,"Von Der Embse, Nathaniel P.",,,1,,,,1,,,2
,Tweens and Teens,,,,,1,,,,1,,,2
,,EDUC - Education,,,,1,,,,1,,,2
,,,"Litchfield, Bradley C.",,,1,,,,1,,,2
,Youth Cultures,,,,1,1,1,,1,1,1,,6
,,ANTH - Anthropology,,,1,1,1,,1,1,1,,6
,,,"Ban, Sonay",,,1,,,,1,,,2
,,,"Mikhaylova, Marina",,,,,,1,,,,1
,,,"Milestone, Juris M.",,,,1,,,,,,1
,,,"Snyder, Eryn F.",,1,,,,,,,,1
,,,"Symes, Hilary A.",,,,,,,,1,,1
GD Gen Ed Diversity & Race,,,,7,9,7,5,10,7,7,5,11,68
,Classics Af Am Theater,,,,,,1,,,,,,1
,,THTR - Theater,,,,,1,,,,,,1
,,,"Williams-Witherspoon, Kimmika",,,,1,,,,,,1
,Dimensions of Diversity: What's Brewing in the Melting Pot?,,,1,2,1,,1,2,1,,1,9
,,STHM - Sport Tourism Hospitality Mgt,,1,2,1,,1,2,1,,1,9
,,,"Blair, Debra K.",1,2,1,,1,2,1,,1,9
,The History & Significance of Race in America,,,2,2,1,1,2,,1,1,2,12
,,AAAS - Africology + African Amer St,,,,1,1,2,,1,,2,7
,,,"Anadolu-Okur, Nilgun",,,,1,,,1,,,2
,,,"Cerol, Marie-Josee",,,,,1,,,,1,2
,,,"Hamilton, Jessica D.",,,,,,,,,1,1
,,,"Paige, Garrison D.",,,,,1,,,,,1
,,,"Wright, Donela",,,1,,,,,,,1
,,AAS - African American Studies,,2,2,,,,,,,,4
,,,"Anadolu-Okur, Nilgun",,1,,,,,,,,1
,,,"Cerol, Marie-Josee",1,1,,,,,,,,2
,,,"Paige, Garrison D.",1,,,,,,,,,1
,,HIST - History,,,,,,,,,1,,1
,,,"Straub, Alexandra L.",,,,,,,,1,,1
,Immigration & Amer Dream,,,,,,1,1,,,1,1,4
,,SPAN - Spanish,,,,,1,1,,,1,1,4
,,,"Nathan, Nicole A.",,,,1,1,,,,,2
,,,"Navickaite, Rimante",,,,,,,,1,,1
,,,(empty),,,,,,,,,1,1
,Immigration & American Dream,,,1,,1,1,1,,1,1,1,7
,,ANTH - Anthropology,,1,,1,1,1,,1,1,1,7
,,,"Cooper, Grace",,,,,1,,,,,1
,,,"Mikhaylova, Marina",,,1,,,,1,,,2
,,,"Nathan, Nicole A.",,,,,,,,1,,1
,,,"Snyder, Eryn F.",1,,,1,,,,,,2
,,,(empty),,,,,,,,,1,1
,Politics of Identity,,,,,,,1,,1,1,1,4
,,POLS - Political Science,,,,,,1,,1,1,1,4
,,,"Blaxland, Joel",,,,,,,,1,,1
,,,"Sokolova, Elena",,,,,1,,,,,1
,,,"Wells, Bonny J.",,,,,,,1,,,1
,,,(empty),,,,,,,,,1,1
,Race & Poverty in the Americas,,,1,1,,,1,1,,,1,5
,,REL - Religion,,1,1,,,1,1,,,1,5
,,,"Hernandez, Eduardo J.",,,,,1,1,,,,2
,,,"Pagnoni, Gayle",1,1,,,,,,,,2
,,,(empty),,,,,,,,,1,1
,"Race, Identity and Experience in American Art",,,,2,1,,2,2,1,,2,10
,,TYLE - Tyler School of Art,,,2,1,,2,2,1,,2,10
,,,"Burk, Tara",,,,,,,,,2,2
,,,"Haavik-Mackinnon, Amy E.",,,,,1,,1,,,2
,,,"Kesson, Hugh",,,1,,,,,,,1
,,,"Lovitz, Adam M.",,,,,1,,,,,1
,,,"Singer, Matthew",,,,,,1,,,,1
,,,"Zarro, Jennifer",,2,,,,1,,,,3
,Race/Ethnicity in Cinema,,,,1,1,1,,,1,1,,5
,,FMA - Film and Media Arts,,,1,1,1,,,1,1,,5
,,,"Burri, Michael",,1,,,,,,,,1
,,,"Feltman, Matthew",,,1,1,,,1,1,,4
,Representing Race,,,2,1,2,,1,2,1,,2,11
,,AAAS - Africology + African Amer St,,,,1,,1,1,1,,1,5
,,,"Anadolu-Okur, Nilgun",,,1,,,,,,1,2
,,,"Craig, John P.",,,,,1,,,,,1
,,,"Noman, Abu S.",,,,,,1,1,,,2
,,AAS - African American Studies,,2,1,,,,,,,,3
,,,"Anadolu-Okur, Nilgun",1,1,,,,,,,,2
,,,"Noman, Abu S.",1,,,,,,,,,1
,,ANTH - Anthropology,,,,1,,,1,,,1,3
,,,"Muniz Pacheco, Dana I.",,,,,,1,,,,1
,,,"Symes, Hilary A.",,,1,,,,,,,1
,,,(empty),,,,,,,,,1,1
GG Gen Ed Global/World Society,,,,5,8,8,2,6,9,7,4,7,56
,Confronting Empire,,,1,,,,,,,,,1
,,HIST - History,,1,,,,,,,,,1
,,,"Ryan, Eileen",1,,,,,,,,,1
,Development & Globalization,,,,1,1,1,,1,,1,,5
,,GUS - Geography and Urban Studies,,,1,1,,,1,,,,3
,,,"Sweet, Elizabeth",,1,1,,,1,,,,3
,,POLS - Political Science,,,,,1,,,,1,,2
,,,"Tynan, Caroline F.",,,,1,,,,1,,2
,Education for Liberation,,,,1,1,,,1,1,,,4
,,URBE - Urban Education,,,1,1,,,1,1,,,4
,,,"Campbell, Angela N.",,,1,,,,1,,,2
,,,"Cassar, Erin A.",,1,,,,1,,,,2
,Evolution of Culture,,,,1,1,,1,1,1,,1,6
,,ANTH - Anthropology,,,1,1,,1,1,1,,1,6
,,,"Almskaar, Kristin D.",,,,,,,1,,,1
,,,"Hansell, Patricia",,1,,,1,1,,,1,4
,,,"Krug, Melissa K.",,,1,,,,,,,1
,Gender & World Societies,,,,1,1,,,1,1,1,1,6
,,GSWS - Gender/Sexuality/Women's St,,,,1,,,1,1,1,1,5
,,,"Banya, Moiyath",,,1,,,,,,,1
,,,"Perry, Travis M.",,,,,,1,,,,1
,,,(empty),,,,,,,1,1,1,3
,,WMST - Women's Studies,,,1,,,,,,,,1
,,,"Banya, Moiyath",,1,,,,,,,,1
,Imaginary Cities,,,,,1,1,,,1,1,,4
,,FMA - Film and Media Arts,,,,1,1,,,1,1,,4
,,,"Burri, Michael",,,1,1,,,1,1,,4
,Religion in the World,,,1,2,,,2,2,,,2,9
,,REL - Religion,,1,2,,,2,2,,,2,9
,,,"Cohen, Egon",1,1,,,,,,,,2
,,,"Detrixhe, Pamela",,1,,,1,1,,,,3
,,,"Tanis, Haci M.",,,,,1,1,,,,2
,,,(empty),,,,,,,,,2,2
,The Detective Novel,,,,,1,,,,1,,,2
,,CRIT - Critical Languages Center,,,,1,,,,1,,,2
,,,"Huang, Shuchen S.",,,1,,,,1,,,2
,War and Peace,,,,,,,,,,1,,1
,,HIST - History,,,,,,,,,1,,1
,,,"Humnicky, Joseph T.",,,,,,,,1,,1
,World Affairs,,,1,,,,,,1,,,2
,,HIST - History,,,,,,,,1,,,1
,,,"Baumann, Steven",,,,,,,1,,,1
,,POLS - Political Science,,1,,,,,,,,,1
,,,"Benjamin-Britton, Mary",1,,,,,,,,,1
,World Regions & Cultures,,,2,1,,,1,1,,,1,6
,,ANTH - Anthropology,,2,1,,,1,1,,,1,6
,,,"Almskaar, Kristin D.",1,,,,,,,,,1
,,,"Mikhaylova, Marina",1,1,,,1,1,,,,4
,,,(empty),,,,,,,,,1,1
,World Society in Literature & Film,,,,1,2,,2,2,1,,2,10
,,FREN - French,,,,1,,1,1,,,1,4
,,,"Farquhar, John J.",,,1,,1,1,,,1,4
,,SPAN - Spanish,,,1,1,,1,1,1,,1,6
,,,"Cunniffe Pena, Kathleen E.",,1,1,,1,,1,,1,5
,,,"Lee, David J.",,,,,,1,,,,1
GQ Gen Ed Quantitative Literacy,,,,,,3,,1,1,3,2,3,13
,Digital Mapping,,,,,,,,,1,,2,3
,,GUS - Geography and Urban Studies,,,,,,,,1,,2,3
,,,"Gardener, Bradley S.",,,,,,,1,,,1
,,,"Jung, Yoonhee",,,,,,,,,1,1
,,,"Schlosser, Kolson",,,,,,,,,1,1
,Investing for the Future,,,,,1,,,,1,,,2
,,ECE - Electrical Engineering,,,,1,,,,1,,,2
,,,"Lengkeek, Steven C.",,,,,,,1,,,1
,,,"Ross, Michelle J.",,,1,,,,,,,1
,Mathematical Patterns,,,,,1,,1,1,,1,1,5
,,MATH - Mathematics,,,,1,,1,1,,1,1,5
,,,"Gimenez, Jose",,,1,,1,1,,1,,4
,,,(empty),,,,,,,,,1,1
,Quant Methods in Soc Sci,,,,,1,,,,1,1,,3
,,POLS - Political Science,,,,1,,,,1,1,,3
,,,"Alvarez, Amanda M.",,,,,,,,1,,1
,,,"Anspach, Nicolas",,,1,,,,,,,1
,,,"Matthews, Ian J.",,,,,,,1,,,1
GS Gen Ed Science & Technology,,,,2,4,3,2,2,8,4,3,5,33
,Brain Matters,,,,,,,,,1,,,1
,,PSY - Psychology,,,,,,,,1,,,1
,,,"James, Peter",,,,,,,1,,,1
,Green vs Gray: Urban Eco,,,,1,1,,,2,1,,,5
,,LARC - Landscape Architecture,,,1,1,,,2,1,,,5
,,,"Wellborn, Elizabeth",,1,1,,,2,1,,,5
,Sustainable Design,,,,,1,,,1,,1,1,4
,,LARC - Landscape Architecture,,,,1,,,1,,1,1,4
,,,"Briggs, Charlene",,,1,,,1,,1,,3
,,,"Carrington, K.Daryl",,,,,,,,,1,1
,Sustainable Environments,,,2,3,1,2,2,5,2,2,4,23
,,EES - Earth & Environmental Science,,,1,,,,3,1,,2,7
,,,"Davis, Timothy S.",,1,,,,2,1,,2,6
,,,"Elias, Anna S.",,,,,,1,,,,1
,,ENST - Environmental Studies (CLA),,1,2,1,1,1,2,1,1,1,11
,,,"Chmara-Huff, Fletcher",1,1,,1,1,1,1,,1,7
,,,"Schlosser, Kolson",,1,1,,,1,,,,3
,,,"Zupan, Sandra",,,,,,,,1,,1
,,GUS - Geography and Urban Studies,,1,,,1,1,,,1,1,5
,,,"Chmara-Huff, Fletcher",,,,1,1,,,,1,3
,,,"Jung, Yoonhee",,,,,,,,1,,1
,,,"Schlosser, Kolson",1,,,,,,,,,1
GU Gen Ed US Society,,,,2,3,3,3,2,4,4,3,3,27
,American Revolutions,,,,,1,,,,1,,,2
,,HIST - History,,,,1,,,,1,,,2
,,,"Hausmann, Stephen R.",,,1,,,,,,,1
,,,"Zoller, Silke V.",,,,,,,1,,,1
,First Person America,,,,,,,,,,,1,1
,,AMST - American Studies,,,,,,,,,,1,1
,,,"Gumery, Keith D.",,,,,,,,,1,1
,Founding Philadelphia,,,,,,,,,1,,,1
,,HIST - History,,,,,,,,1,,,1
,,,"Tannenbaum, Seth S.",,,,,,,1,,,1
,Landscape of American Thought,,,1,1,1,,1,1,1,,1,7
,,PHIL - Philosophy,,1,1,1,,1,1,1,,1,7
,,,"Cutts, Joshua B.",1,1,,,,,,,,2
,,,"Fosner, Carmen A.",,,,,1,1,,,,2
,,,"Fugo, Justin I.",,,1,,,,1,,,2
,,,(empty),,,,,,,,,1,1
,Living for Change,,,,,,,,1,,,,1
,,GSWS - Gender/Sexuality/Women's St,,,,,,,1,,,,1
,,,"Banya, Moiyath",,,,,,1,,,,1
,Making Amer Society,,,,,,1,,,,1,,2
,,HIST - History,,,,,1,,,,1,,2
,,,"Crider, Jonathan",,,,1,,,,1,,2
,Sport & Leisure in American Society,,,1,2,,1,1,2,,1,1,9
,,STHM - Sport Tourism Hospitality Mgt,,1,2,,1,1,2,,1,1,9
,,,"Blackburn, Heather",,,,,,,,1,,1
,,,"Kent, Robert A.",1,2,,,1,2,,,1,7
,,,"Ridall, Richard",,,,1,,,,,,1
,Sport & Leisure in Amer Soc,,,,,1,1,,,1,1,,4
,,AAAS - Africology + African Amer St,,,,1,1,,,1,1,,4
,,,"Denson, Jordan W.",,,,1,,,,,,1
,,,"Johnson, Christopher A.",,,1,,,,1,1,,3
GW Gen Ed Analyt Reading/Writing,,,,2,2,,,,3,,,2,9
,Analytical Reading and Writing,,,2,2,,,,3,,,2,9
,,ENG - English,,2,2,,,,3,,,2,9
,,,"Friedman, Amy L.",,2,,,,,,,,2
,,,"Gumery, Keith D.",,,,,,1,,,,1
,,,"Kecskes, Gabriella",2,,,,,,,,,2
,,,"Toomey, Melissa",,,,,,2,,,,2
,,,(empty),,,,,,,,,2,2
GY Gen Ed Mosaics I,,,,4,4,4,2,,4,4,2,1,25
,Intellectual Heritage I: The Good Life,,,4,4,4,2,,4,4,2,1,25
,,IH - Intellectual Heritage,,4,4,4,2,,4,4,2,1,25
,,,"Bertolino, Susan",,1,1,,,,1,1,,4
,,,"Chavers, Linda",,,,,,,1,,,1
,,,"Cunningham-Bryant, Alicia A.",,1,1,,,,,,,2
,,,"Davies, John",,,,1,,,,,,1
,,,"Fischer, Ariane",,,,,,1,1,,,2
,,,"Getz, James R.",,,,,,1,1,1,,3
,,,"Lee, Linda",1,,,,,,,,,1
,,,"Mossin, Andrew R.",,1,,,,1,,,,2
,,,"Peak, Anna L.",2,,1,,,,,,,3
,,,"Perry, Travis M.",,,,1,,,,,,1
,,,"Sawin, Sheryl",1,1,1,,,1,,,,4
,,,(empty),,,,,,,,,1,1
GZ Gen Ed Mosaics II,,,,7,7,5,4,,8,5,3,1,40
,Intellectual Heritage II: The Common Good,,,7,7,5,4,,8,5,3,1,40
,,IH - Intellectual Heritage,,7,7,5,4,,8,5,3,1,40
,,,"Bertolino, Susan",,,,,,2,,,,2
,,,"Cunningham-Bryant, Alicia A.",2,,,,,1,1,,,4
,,,"Davies, John",1,1,,,,1,1,,,4
,,,"Fischer, Ariane",1,1,1,1,,,,,,4
,,,"Getz, James R.",1,1,1,,,,,,,3
,,,"Lemieur, Deborah",1,1,1,1,,1,,1,,6
,,,"Mossin, Andrew R.",,,,,,,,1,,1
,,,"Pappas, Jonathan C.",,,,1,,,,,,1
,,,"Peak, Anna L.",,1,,,,1,1,1,,4
,,,"Rossi, Natasha T.",,,1,,,2,1,,,4
,,,"Shapiro, Jordan",1,2,1,1,,,1,,,6
,,,(empty),,,,,,,,,1,1
Total Result,,,,34,48,40,25,29,63,41,29,44,353
